module bitbucket.org/udevs/example_api_gateway

go 1.16

require (
	github.com/gin-contrib/cors v1.3.1
	github.com/gin-gonic/gin v1.7.4
	github.com/go-openapi/jsonreference v0.19.6 // indirect
	github.com/go-openapi/swag v0.19.15 // indirect
	github.com/go-ozzo/ozzo-validation/v4 v4.3.0
	github.com/go-playground/validator/v10 v10.9.0 // indirect
	github.com/golang/protobuf v1.5.2
	github.com/google/uuid v1.3.0 // indirect
	github.com/json-iterator/go v1.1.10 // indirect
	github.com/mailru/easyjson v0.7.7 // indirect
	github.com/mattn/go-isatty v0.0.13 // indirect
	github.com/spf13/cast v1.5.0
	github.com/swaggo/files v0.0.0-20210815190702-a29dd2bc99b2
	github.com/swaggo/gin-swagger v1.3.1
	github.com/swaggo/swag v1.7.1
	github.com/ugorji/go v1.2.6 // indirect
	go.uber.org/zap v1.16.0
	golang.org/x/crypto v0.0.0-20210817164053-32db794688a5
	golang.org/x/net v0.0.0-20210825183410-e898025ed96a // indirect
	golang.org/x/sys v0.0.0-20210831042530-f4d43177bf5e // indirect
	golang.org/x/text v0.3.7 // indirect
	golang.org/x/tools v0.1.5 // indirect
	google.golang.org/grpc v1.33.2
	google.golang.org/protobuf v1.27.1
)
